{
	"credit": "Made with Blockbench",
	"textures": {
		"0": "tardis:blocks/item_panel_frame_animated",
		"particle": "tardis:blocks/item_panel_frame_animated"
	},
	"elements": [
		{
			"from": [0, 11, 11],
			"to": [5, 16, 16],
			"rotation": {"angle": 0, "axis": "y", "origin": [8, 19, 19]},
			"faces": {
				"north": {"uv": [11, 7, 16, 12], "texture": "#0"},
				"east": {"uv": [11, 7, 16, 12], "texture": "#0"},
				"south": {"uv": [11, 7, 16, 12], "texture": "#0"},
				"west": {"uv": [11, 7, 16, 12], "texture": "#0"},
				"up": {"uv": [11, 7, 16, 12], "texture": "#0"},
				"down": {"uv": [11, 7, 16, 12], "texture": "#0"}
			}
		},
		{
			"from": [0, 11, 0],
			"to": [5, 16, 5],
			"rotation": {"angle": 0, "axis": "y", "origin": [8, 19, 8]},
			"faces": {
				"north": {"uv": [11, 7, 16, 12], "texture": "#0"},
				"east": {"uv": [11, 7, 16, 12], "texture": "#0"},
				"south": {"uv": [11, 7, 16, 12], "texture": "#0"},
				"west": {"uv": [11, 7, 16, 12], "texture": "#0"},
				"up": {"uv": [11, 7, 16, 12], "texture": "#0"},
				"down": {"uv": [11, 7, 16, 12], "texture": "#0"}
			}
		},
		{
			"from": [11, 11, 0],
			"to": [16, 16, 5],
			"rotation": {"angle": 0, "axis": "y", "origin": [19, 19, 8]},
			"faces": {
				"north": {"uv": [11, 7, 16, 12], "texture": "#0"},
				"east": {"uv": [11, 7, 16, 12], "texture": "#0"},
				"south": {"uv": [11, 7, 16, 12], "texture": "#0"},
				"west": {"uv": [11, 7, 16, 12], "texture": "#0"},
				"up": {"uv": [11, 7, 16, 12], "texture": "#0"},
				"down": {"uv": [11, 7, 16, 12], "texture": "#0"}
			}
		},
		{
			"from": [11, 11, 11],
			"to": [16, 16, 16],
			"rotation": {"angle": 0, "axis": "y", "origin": [19, 19, 19]},
			"faces": {
				"north": {"uv": [11, 7, 16, 12], "texture": "#0"},
				"east": {"uv": [11, 7, 16, 12], "texture": "#0"},
				"south": {"uv": [11, 7, 16, 12], "texture": "#0"},
				"west": {"uv": [11, 7, 16, 12], "texture": "#0"},
				"up": {"uv": [11, 7, 16, 12], "texture": "#0"},
				"down": {"uv": [11, 7, 16, 12], "texture": "#0"}
			}
		},
		{
			"from": [0, 0, 11],
			"to": [5, 5, 16],
			"rotation": {"angle": 0, "axis": "y", "origin": [8, 8, 19]},
			"faces": {
				"north": {"uv": [11, 7, 16, 12], "texture": "#0"},
				"east": {"uv": [11, 7, 16, 12], "texture": "#0"},
				"south": {"uv": [11, 7, 16, 12], "texture": "#0"},
				"west": {"uv": [11, 7, 16, 12], "texture": "#0"},
				"up": {"uv": [11, 7, 16, 12], "texture": "#0"},
				"down": {"uv": [11, 7, 16, 12], "texture": "#0"}
			}
		},
		{
			"from": [0, 0, 0],
			"to": [5, 5, 5],
			"faces": {
				"north": {"uv": [11, 7, 16, 12], "texture": "#0"},
				"east": {"uv": [11, 7, 16, 12], "texture": "#0"},
				"south": {"uv": [11, 7, 16, 12], "texture": "#0"},
				"west": {"uv": [11, 7, 16, 12], "texture": "#0"},
				"up": {"uv": [11, 7, 16, 12], "texture": "#0"},
				"down": {"uv": [11, 7, 16, 12], "texture": "#0"}
			}
		},
		{
			"from": [11, 0, 0],
			"to": [16, 5, 5],
			"rotation": {"angle": 0, "axis": "y", "origin": [19, 8, 8]},
			"faces": {
				"north": {"uv": [11, 7, 16, 12], "texture": "#0"},
				"east": {"uv": [11, 7, 16, 12], "texture": "#0"},
				"south": {"uv": [11, 7, 16, 12], "texture": "#0"},
				"west": {"uv": [11, 7, 16, 12], "texture": "#0"},
				"up": {"uv": [11, 7, 16, 12], "texture": "#0"},
				"down": {"uv": [11, 7, 16, 12], "texture": "#0"}
			}
		},
		{
			"from": [11, 0, 11],
			"to": [16, 5, 16],
			"rotation": {"angle": 0, "axis": "y", "origin": [19, 8, 19]},
			"faces": {
				"north": {"uv": [11, 7, 16, 12], "texture": "#0"},
				"east": {"uv": [11, 7, 16, 12], "texture": "#0"},
				"south": {"uv": [11, 7, 16, 12], "texture": "#0"},
				"west": {"uv": [11, 7, 16, 12], "texture": "#0"},
				"up": {"uv": [11, 7, 16, 12], "texture": "#0"},
				"down": {"uv": [11, 7, 16, 12], "texture": "#0"}
			}
		},
		{
			"from": [1, 1, 5],
			"to": [4, 4, 11],
			"faces": {
				"north": {"uv": [13, 4, 16, 7], "texture": "#0"},
				"east": {"uv": [10, 13, 16, 16], "texture": "#0"},
				"south": {"uv": [13, 4, 16, 7], "texture": "#0"},
				"west": {"uv": [10, 13, 16, 16], "texture": "#0"},
				"up": {"uv": [10, 13, 16, 16], "rotation": 270, "texture": "#0"},
				"down": {"uv": [10, 13, 16, 16], "rotation": 90, "texture": "#0"}
			}
		},
		{
			"from": [1, 12, 5],
			"to": [4, 15, 11],
			"rotation": {"angle": 0, "axis": "y", "origin": [8, 19, 8]},
			"faces": {
				"north": {"uv": [13, 4, 16, 7], "texture": "#0"},
				"east": {"uv": [10, 13, 16, 16], "texture": "#0"},
				"south": {"uv": [13, 4, 16, 7], "texture": "#0"},
				"west": {"uv": [10, 13, 16, 16], "texture": "#0"},
				"up": {"uv": [10, 13, 16, 16], "rotation": 270, "texture": "#0"},
				"down": {"uv": [10, 13, 16, 16], "rotation": 90, "texture": "#0"}
			}
		},
		{
			"from": [12, 1, 5],
			"to": [15, 4, 11],
			"rotation": {"angle": 0, "axis": "y", "origin": [19, 8, 8]},
			"faces": {
				"north": {"uv": [13, 4, 16, 7], "texture": "#0"},
				"east": {"uv": [10, 13, 16, 16], "texture": "#0"},
				"south": {"uv": [13, 4, 16, 7], "texture": "#0"},
				"west": {"uv": [10, 13, 16, 16], "texture": "#0"},
				"up": {"uv": [10, 13, 16, 16], "rotation": 270, "texture": "#0"},
				"down": {"uv": [10, 13, 16, 16], "rotation": 90, "texture": "#0"}
			}
		},
		{
			"from": [12, 12, 5],
			"to": [15, 15, 11],
			"rotation": {"angle": 0, "axis": "y", "origin": [19, 19, 8]},
			"faces": {
				"north": {"uv": [13, 4, 16, 7], "texture": "#0"},
				"east": {"uv": [10, 13, 16, 16], "texture": "#0"},
				"south": {"uv": [13, 4, 16, 7], "texture": "#0"},
				"west": {"uv": [10, 13, 16, 16], "texture": "#0"},
				"up": {"uv": [10, 13, 16, 16], "rotation": 270, "texture": "#0"},
				"down": {"uv": [10, 13, 16, 16], "rotation": 90, "texture": "#0"}
			}
		},
		{
			"from": [12, 5, 12],
			"to": [15, 11, 15],
			"rotation": {"angle": 0, "axis": "y", "origin": [13.5, 8, 13.5]},
			"faces": {
				"north": {"uv": [10, 13, 16, 16], "rotation": 270, "texture": "#0"},
				"east": {"uv": [10, 13, 16, 16], "rotation": 270, "texture": "#0"},
				"south": {"uv": [10, 13, 16, 16], "rotation": 270, "texture": "#0"},
				"west": {"uv": [10, 13, 16, 16], "rotation": 90, "texture": "#0"},
				"up": {"uv": [13, 4, 16, 7], "rotation": 180, "texture": "#0"},
				"down": {"uv": [13, 4, 16, 7], "texture": "#0"}
			}
		},
		{
			"from": [1, 5, 12],
			"to": [4, 11, 15],
			"rotation": {"angle": 0, "axis": "y", "origin": [2.5, 8, 13.5]},
			"faces": {
				"north": {"uv": [10, 13, 16, 16], "rotation": 270, "texture": "#0"},
				"east": {"uv": [10, 13, 16, 16], "rotation": 270, "texture": "#0"},
				"south": {"uv": [10, 13, 16, 16], "rotation": 270, "texture": "#0"},
				"west": {"uv": [10, 13, 16, 16], "rotation": 90, "texture": "#0"},
				"up": {"uv": [13, 4, 16, 7], "rotation": 180, "texture": "#0"},
				"down": {"uv": [13, 4, 16, 7], "texture": "#0"}
			}
		},
		{
			"from": [12, 5, 1],
			"to": [15, 11, 4],
			"rotation": {"angle": 0, "axis": "y", "origin": [13.5, 8, 2.5]},
			"faces": {
				"north": {"uv": [10, 13, 16, 16], "rotation": 270, "texture": "#0"},
				"east": {"uv": [10, 13, 16, 16], "rotation": 270, "texture": "#0"},
				"south": {"uv": [10, 13, 16, 16], "rotation": 270, "texture": "#0"},
				"west": {"uv": [10, 13, 16, 16], "rotation": 90, "texture": "#0"},
				"up": {"uv": [13, 4, 16, 7], "rotation": 180, "texture": "#0"},
				"down": {"uv": [13, 4, 16, 7], "texture": "#0"}
			}
		},
		{
			"from": [1, 5, 1],
			"to": [4, 11, 4],
			"rotation": {"angle": 0, "axis": "y", "origin": [2.5, 8, 2.5]},
			"faces": {
				"north": {"uv": [10, 13, 16, 16], "rotation": 270, "texture": "#0"},
				"east": {"uv": [10, 13, 16, 16], "rotation": 270, "texture": "#0"},
				"south": {"uv": [10, 13, 16, 16], "rotation": 270, "texture": "#0"},
				"west": {"uv": [10, 13, 16, 16], "rotation": 90, "texture": "#0"},
				"up": {"uv": [13, 4, 16, 7], "rotation": 180, "texture": "#0"},
				"down": {"uv": [13, 4, 16, 7], "texture": "#0"}
			}
		},
		{
			"from": [5, 12, 12],
			"to": [11, 15, 15],
			"faces": {
				"north": {"uv": [10, 13, 16, 16], "texture": "#0"},
				"east": {"uv": [13, 4, 16, 7], "texture": "#0"},
				"south": {"uv": [10, 13, 16, 16], "texture": "#0"},
				"west": {"uv": [13, 4, 16, 7], "texture": "#0"},
				"up": {"uv": [10, 13, 16, 16], "texture": "#0"},
				"down": {"uv": [10, 13, 16, 16], "texture": "#0"}
			}
		},
		{
			"from": [5, 1, 12],
			"to": [11, 4, 15],
			"rotation": {"angle": 0, "axis": "y", "origin": [8, -3, 8]},
			"faces": {
				"north": {"uv": [10, 13, 16, 16], "texture": "#0"},
				"east": {"uv": [13, 4, 16, 7], "texture": "#0"},
				"south": {"uv": [10, 13, 16, 16], "texture": "#0"},
				"west": {"uv": [13, 4, 16, 7], "texture": "#0"},
				"up": {"uv": [10, 13, 16, 16], "texture": "#0"},
				"down": {"uv": [10, 13, 16, 16], "texture": "#0"}
			}
		},
		{
			"from": [5, 12, 1],
			"to": [11, 15, 4],
			"rotation": {"angle": 0, "axis": "y", "origin": [8, 8, -3]},
			"faces": {
				"north": {"uv": [10, 13, 16, 16], "texture": "#0"},
				"east": {"uv": [13, 4, 16, 7], "texture": "#0"},
				"south": {"uv": [10, 13, 16, 16], "texture": "#0"},
				"west": {"uv": [13, 4, 16, 7], "texture": "#0"},
				"up": {"uv": [10, 13, 16, 16], "texture": "#0"},
				"down": {"uv": [10, 13, 16, 16], "texture": "#0"}
			}
		},
		{
			"from": [5, 1, 1],
			"to": [11, 4, 4],
			"rotation": {"angle": 0, "axis": "y", "origin": [8, -3, -3]},
			"faces": {
				"north": {"uv": [10, 13, 16, 16], "texture": "#0"},
				"east": {"uv": [13, 4, 16, 7], "texture": "#0"},
				"south": {"uv": [10, 13, 16, 16], "texture": "#0"},
				"west": {"uv": [13, 4, 16, 7], "texture": "#0"},
				"up": {"uv": [10, 13, 16, 16], "texture": "#0"},
				"down": {"uv": [10, 13, 16, 16], "texture": "#0"}
			}
		},
		{
			"from": [0, 6, 6],
			"to": [4, 10, 10],
			"rotation": {"angle": 0, "axis": "y", "origin": [2, 8, 8]},
			"faces": {
				"north": {"uv": [5, 0, 9, 4], "texture": "#0"},
				"east": {"uv": [0, 0, 4, 4], "texture": "#0"},
				"south": {"uv": [4, 0, 8, 4], "texture": "#0"},
				"west": {"uv": [0, 0, 4, 4], "texture": "#0"},
				"up": {"uv": [4, 0, 8, 4], "texture": "#0"},
				"down": {"uv": [4, 0, 8, 4], "texture": "#0"}
			}
		},
		{
			"from": [6, 6, 0],
			"to": [10, 10, 4],
			"rotation": {"angle": 0, "axis": "y", "origin": [8, 8, 2]},
			"faces": {
				"north": {"uv": [0, 0, 4, 4], "texture": "#0"},
				"east": {"uv": [5, 0, 9, 4], "texture": "#0"},
				"south": {"uv": [0, 0, 4, 4], "texture": "#0"},
				"west": {"uv": [4, 0, 8, 4], "texture": "#0"},
				"up": {"uv": [12, 0, 16, 4], "texture": "#0"},
				"down": {"uv": [9, 0, 13, 4], "texture": "#0"}
			}
		},
		{
			"from": [6, 6, 12],
			"to": [10, 10, 16],
			"rotation": {"angle": 0, "axis": "y", "origin": [8, 8, 14]},
			"faces": {
				"north": {"uv": [0, 0, 4, 4], "texture": "#0"},
				"east": {"uv": [4, 0, 8, 4], "texture": "#0"},
				"south": {"uv": [0, 0, 4, 4], "texture": "#0"},
				"west": {"uv": [5, 0, 9, 4], "texture": "#0"},
				"up": {"uv": [9, 0, 13, 4], "texture": "#0"},
				"down": {"uv": [12, 0, 16, 4], "texture": "#0"}
			}
		},
		{
			"from": [6, 12, 6],
			"to": [10, 16, 10],
			"rotation": {"angle": 0, "axis": "y", "origin": [8, 14, 8]},
			"faces": {
				"north": {"uv": [12, 0, 16, 4], "texture": "#0"},
				"east": {"uv": [12, 0, 16, 4], "texture": "#0"},
				"south": {"uv": [12, 0, 16, 4], "texture": "#0"},
				"west": {"uv": [12, 0, 16, 4], "texture": "#0"},
				"up": {"uv": [0, 0, 4, 4], "texture": "#0"},
				"down": {"uv": [0, 0, 4, 4], "texture": "#0"}
			}
		},
		{
			"from": [6, 0, 6],
			"to": [10, 4, 10],
			"rotation": {"angle": 0, "axis": "y", "origin": [8, 2, 8]},
			"faces": {
				"north": {"uv": [9, 0, 13, 4], "texture": "#0"},
				"east": {"uv": [9, 0, 13, 4], "texture": "#0"},
				"south": {"uv": [9, 0, 13, 4], "texture": "#0"},
				"west": {"uv": [9, 0, 13, 4], "texture": "#0"},
				"up": {"uv": [0, 0, 4, 4], "texture": "#0"},
				"down": {"uv": [0, 0, 4, 4], "texture": "#0"}
			}
		},
		{
			"from": [12, 6, 6],
			"to": [16, 10, 10],
			"rotation": {"angle": 0, "axis": "y", "origin": [14, 8, 8]},
			"faces": {
				"north": {"uv": [4, 0, 8, 4], "texture": "#0"},
				"east": {"uv": [0, 0, 4, 4], "texture": "#0"},
				"south": {"uv": [5, 0, 9, 4], "texture": "#0"},
				"west": {"uv": [0, 0, 4, 4], "texture": "#0"},
				"up": {"uv": [5, 0, 9, 4], "texture": "#0"},
				"down": {"uv": [5, 0, 9, 4], "texture": "#0"}
			}
		},
		{
			"from": [4, 4, 4],
			"to": [12, 12, 12],
			"rotation": {"angle": 0, "axis": "y", "origin": [13, 8, 13]},
			"faces": {
				"north": {"uv": [0, 6, 10, 16], "texture": "#0"},
				"east": {"uv": [0, 6, 10, 16], "texture": "#0"},
				"south": {"uv": [0, 6, 10, 16], "texture": "#0"},
				"west": {"uv": [0, 6, 10, 16], "texture": "#0"},
				"up": {"uv": [0, 6, 10, 16], "texture": "#0"},
				"down": {"uv": [0, 6, 10, 16], "texture": "#0"}
			}
		}
	],
	"display": {
		"thirdperson_righthand": {
			"rotation": [0, 45, 0],
			"translation": [0, 1.75, 0],
			"scale": [0.25, 0.25, 0.25]
		},
		"thirdperson_lefthand": {
			"rotation": [0, 45, 0],
			"translation": [0, 1.75, 0],
			"scale": [0.25, 0.25, 0.25]
		},
		"firstperson_righthand": {
			"rotation": [0, 30, 0],
			"translation": [-1.5, 2, 2.75],
			"scale": [0.25, 0.25, 0.25]
		},
		"firstperson_lefthand": {
			"rotation": [0, 30, 0],
			"translation": [-1.5, 2, 2.75],
			"scale": [0.25, 0.25, 0.25]
		},
		"ground": {
			"scale": [0.25, 0.25, 0.25]
		},
		"gui": {
			"rotation": [30, 135, 0],
			"scale": [0.5, 0.5, 0.5]
		}
	},
	"groups": [
		{
			"name": "corners",
			"origin": [19, 8, 8],
			"children": [0, 1, 2, 3, 4, 5, 6, 7]
		},
		{
			"name": "frame",
			"origin": [17, 13, 20],
			"children": [8, 9, 10, 11, 12, 13, 14, 15, 16, 17, 18, 19]
		},
		{
			"name": "connetions",
			"origin": [13, 2, 14],
			"children": [20, 21, 22, 23, 24, 25]
		},
		{
			"name": "core",
			"origin": [8, 8, 8],
			"children": [26]
		}
	]
}