{
    "type": "tardis:quantiscope",
	"repair":false,
	"ingredients":[
		{"item":"minecraft:egg"},
		{"item":"tardis:circuits"},
		{"item":"tardis:xion_crystal"}
	],
	"result":{
		"item":"tardis:ars_egg"
	}
}