{
	"type": "tardis:quantiscope",
	"repair":false,
	"ingredients":[
		{"item":"tardis:circuit_paste"},
		{"item":"minecraft:gold_nugget"},
		{"item":"minecraft:gold_nugget"},
		{"item":"tardis:xion_crystal"}
	],
	"result":{
		"item":"tardis:circuits"
	}
}