{
  "type": "minecraft:crafting_shapeless",
  "ingredients": [
  {
  "item": "minecraft:paper"
  },
  {
  "item": "minecraft:paper"
  },
  {
  "item": "minecraft:paper"
  }
  ],
  "result": {
    "item": "tardis:clutter_paper",
    "count": 3
  }
}