{
  "bedrock_roof_position": 256,
  "bedrock_floor_position": 0,
  "sea_level": 63,
  "disable_mob_generation": true,
  "structures": {
    "stronghold":{"distance":0,"spread":0,"count":0}, 
    "structures": {
      "minecraft:buried_treasure": {
        "spacing": 1,
        "separation": 0,
        "salt": 0
      }
    }
  },
  "noise": {
    "random_density_offset": true,
    "density_factor": 1.0,
    "density_offset": -0.46875,
    "simplex_surface_noise": true,
    "bottom_slide": {
      "target": -30,
      "size": 0,
      "offset": 0
    },
    "size_horizontal": 2,
    "size_vertical": 4,
    "height": 256,
    "sampling": {
      "xz_scale": 0.9999999814507745,
      "y_scale": 0.9999999814507745,
      "xz_factor": 80.0,
      "y_factor": 160.0
    },
    "top_slide": {
      "target": -10,
      "size": 3,
      "offset": 0
    }
  },
  "default_block": {
    "Name": "tardis:regolith_packed"
  },
  "default_fluid": {
    "Properties": {
      "level": "0"
    },
    "Name": "minecraft:water"
  }
}