{
	"lines":[
	""
	,"Toggle Forcefield"
	,""
	," This toggles the Exterior Forcefield, which protects the pilots inside from being sucked out into space"
	,"This will not prevent pilots being sucked out during flight"
	]
}